Hello from rank 0, thread 17, on nid12272. (core affinity = 17)
Hello from rank 0, thread 3, on nid12272. (core affinity = 3)
Hello from rank 0, thread 26, on nid12272. (core affinity = 26)
Hello from rank 0, thread 38, on nid12272. (core affinity = 38)
Hello from rank 0, thread 55, on nid12272. (core affinity = 55)
Hello from rank 0, thread 30, on nid12272. (core affinity = 30)
Hello from rank 0, thread 50, on nid12272. (core affinity = 50)
Hello from rank 0, thread 43, on nid12272. (core affinity = 43)
Hello from rank 0, thread 61, on nid12272. (core affinity = 61)
Hello from rank 0, thread 2, on nid12272. (core affinity = 2)
Hello from rank 0, thread 16, on nid12272. (core affinity = 16)
Hello from rank 0, thread 1, on nid12272. (core affinity = 1)
Hello from rank 0, thread 14, on nid12272. (core affinity = 14)
Hello from rank 0, thread 5, on nid12272. (core affinity = 5)
Hello from rank 0, thread 19, on nid12272. (core affinity = 19)
Hello from rank 0, thread 21, on nid12272. (core affinity = 21)
Hello from rank 1, thread 32, on nid12273. (core affinity = 32)
Hello from rank 1, thread 18, on nid12273. (core affinity = 18)
Hello from rank 1, thread 50, on nid12273. (core affinity = 50)
Hello from rank 1, thread 22, on nid12273. (core affinity = 22)
Hello from rank 1, thread 7, on nid12273. (core affinity = 7)
Hello from rank 1, thread 16, on nid12273. (core affinity = 16)
Hello from rank 1, thread 45, on nid12273. (core affinity = 45)
Hello from rank 1, thread 47, on nid12273. (core affinity = 47)
Hello from rank 1, thread 6, on nid12273. (core affinity = 6)
Hello from rank 1, thread 13, on nid12273. (core affinity = 13)
Hello from rank 1, thread 64, on nid12273. (core affinity = 64)
Hello from rank 1, thread 33, on nid12273. (core affinity = 33)
Hello from rank 1, thread 15, on nid12273. (core affinity = 15)
Hello from rank 1, thread 30, on nid12273. (core affinity = 30)
Hello from rank 1, thread 31, on nid12273. (core affinity = 31)
Hello from rank 1, thread 2, on nid12273. (core affinity = 2)
Hello from rank 0, thread 49, on nid12272. (core affinity = 49)
Hello from rank 0, thread 12, on nid12272. (core affinity = 12)
Hello from rank 0, thread 13, on nid12272. (core affinity = 13)
Hello from rank 0, thread 22, on nid12272. (core affinity = 22)
Hello from rank 0, thread 6, on nid12272. (core affinity = 6)
Hello from rank 0, thread 65, on nid12272. (core affinity = 65)
Hello from rank 0, thread 64, on nid12272. (core affinity = 64)
Hello from rank 0, thread 51, on nid12272. (core affinity = 51)
Hello from rank 0, thread 67, on nid12272. (core affinity = 67)
Hello from rank 0, thread 66, on nid12272. (core affinity = 66)
Hello from rank 0, thread 46, on nid12272. (core affinity = 46)
Hello from rank 0, thread 47, on nid12272. (core affinity = 47)
Hello from rank 0, thread 27, on nid12272. (core affinity = 27)
Hello from rank 0, thread 25, on nid12272. (core affinity = 25)
Hello from rank 0, thread 24, on nid12272. (core affinity = 24)
Hello from rank 0, thread 10, on nid12272. (core affinity = 10)
Hello from rank 0, thread 11, on nid12272. (core affinity = 11)
Hello from rank 0, thread 39, on nid12272. (core affinity = 39)
Hello from rank 0, thread 56, on nid12272. (core affinity = 56)
Hello from rank 0, thread 57, on nid12272. (core affinity = 57)
Hello from rank 0, thread 45, on nid12272. (core affinity = 45)
Hello from rank 0, thread 44, on nid12272. (core affinity = 44)
Hello from rank 0, thread 54, on nid12272. (core affinity = 54)
Hello from rank 0, thread 60, on nid12272. (core affinity = 60)
Hello from rank 0, thread 9, on nid12272. (core affinity = 9)
Hello from rank 0, thread 8, on nid12272. (core affinity = 8)
Hello from rank 0, thread 29, on nid12272. (core affinity = 29)
Hello from rank 0, thread 28, on nid12272. (core affinity = 28)
Hello from rank 0, thread 31, on nid12272. (core affinity = 31)
Hello from rank 0, thread 37, on nid12272. (core affinity = 37)
Hello from rank 0, thread 41, on nid12272. (core affinity = 41)
Hello from rank 0, thread 40, on nid12272. (core affinity = 40)
Hello from rank 0, thread 59, on nid12272. (core affinity = 59)
Hello from rank 0, thread 58, on nid12272. (core affinity = 58)
Hello from rank 0, thread 63, on nid12272. (core affinity = 63)
Hello from rank 0, thread 62, on nid12272. (core affinity = 62)
Hello from rank 0, thread 42, on nid12272. (core affinity = 42)
Hello from rank 0, thread 36, on nid12272. (core affinity = 36)
Hello from rank 0, thread 52, on nid12272. (core affinity = 52)
Hello from rank 0, thread 53, on nid12272. (core affinity = 53)
Hello from rank 0, thread 33, on nid12272. (core affinity = 33)
Hello from rank 0, thread 32, on nid12272. (core affinity = 32)
Hello from rank 0, thread 7, on nid12272. (core affinity = 7)
Hello from rank 0, thread 0, on nid12272. (core affinity = 0)
Hello from rank 0, thread 15, on nid12272. (core affinity = 15)
Hello from rank 0, thread 4, on nid12272. (core affinity = 4)
Hello from rank 0, thread 35, on nid12272. (core affinity = 35)
Hello from rank 0, thread 34, on nid12272. (core affinity = 34)
Hello from rank 1, thread 66, on nid12273. (core affinity = 66)
Hello from rank 1, thread 34, on nid12273. (core affinity = 34)
Hello from rank 1, thread 35, on nid12273. (core affinity = 35)
Hello from rank 1, thread 52, on nid12273. (core affinity = 52)
Hello from rank 1, thread 5, on nid12273. (core affinity = 5)
Hello from rank 1, thread 4, on nid12273. (core affinity = 4)
Hello from rank 1, thread 1, on nid12273. (core affinity = 1)
Hello from rank 1, thread 58, on nid12273. (core affinity = 58)
Hello from rank 1, thread 38, on nid12273. (core affinity = 38)
Hello from rank 1, thread 39, on nid12273. (core affinity = 39)
Hello from rank 1, thread 51, on nid12273. (core affinity = 51)
Hello from rank 1, thread 29, on nid12273. (core affinity = 29)
Hello from rank 1, thread 28, on nid12273. (core affinity = 28)
Hello from rank 1, thread 43, on nid12273. (core affinity = 43)
Hello from rank 1, thread 42, on nid12273. (core affinity = 42)
Hello from rank 1, thread 23, on nid12273. (core affinity = 23)
Hello from rank 1, thread 61, on nid12273. (core affinity = 61)
Hello from rank 1, thread 60, on nid12273. (core affinity = 60)
Hello from rank 1, thread 41, on nid12273. (core affinity = 41)
Hello from rank 1, thread 40, on nid12273. (core affinity = 40)
Hello from rank 1, thread 56, on nid12273. (core affinity = 56)
Hello from rank 1, thread 57, on nid12273. (core affinity = 57)
Hello from rank 1, thread 55, on nid12273. (core affinity = 55)
Hello from rank 1, thread 37, on nid12273. (core affinity = 37)
Hello from rank 1, thread 36, on nid12273. (core affinity = 36)
Hello from rank 1, thread 27, on nid12273. (core affinity = 27)
Hello from rank 1, thread 26, on nid12273. (core affinity = 26)
Hello from rank 1, thread 20, on nid12273. (core affinity = 20)
Hello from rank 1, thread 21, on nid12273. (core affinity = 21)
Hello from rank 1, thread 63, on nid12273. (core affinity = 63)
Hello from rank 1, thread 62, on nid12273. (core affinity = 62)
Hello from rank 1, thread 44, on nid12273. (core affinity = 44)
Hello from rank 1, thread 0, on nid12273. (core affinity = 0)
Hello from rank 1, thread 19, on nid12273. (core affinity = 19)
Hello from rank 1, thread 59, on nid12273. (core affinity = 59)
Hello from rank 1, thread 65, on nid12273. (core affinity = 65)
Hello from rank 1, thread 8, on nid12273. (core affinity = 8)
Hello from rank 1, thread 9, on nid12273. (core affinity = 9)
Hello from rank 1, thread 17, on nid12273. (core affinity = 17)
Hello from rank 1, thread 24, on nid12273. (core affinity = 24)
Hello from rank 1, thread 46, on nid12273. (core affinity = 46)
Hello from rank 1, thread 54, on nid12273. (core affinity = 54)
Hello from rank 1, thread 25, on nid12273. (core affinity = 25)
Hello from rank 1, thread 12, on nid12273. (core affinity = 12)
Hello from rank 1, thread 14, on nid12273. (core affinity = 14)
Hello from rank 1, thread 49, on nid12273. (core affinity = 49)
Hello from rank 1, thread 48, on nid12273. (core affinity = 48)
Hello from rank 1, thread 10, on nid12273. (core affinity = 10)
Hello from rank 0, thread 20, on nid12272. (core affinity = 20)
Hello from rank 0, thread 18, on nid12272. (core affinity = 18)
Hello from rank 0, thread 48, on nid12272. (core affinity = 48)
Hello from rank 0, thread 23, on nid12272. (core affinity = 23)
Hello from rank 1, thread 11, on nid12273. (core affinity = 11)
Hello from rank 1, thread 3, on nid12273. (core affinity = 3)
Hello from rank 1, thread 67, on nid12273. (core affinity = 67)
Hello from rank 1, thread 53, on nid12273. (core affinity = 53)
